{
  "images" : [
    {
      "idiom" : "universal",
      "scale" : "1x",
      "filename" : "ribbon-sin-texto@1x.png"
    },
    {
      "idiom" : "universal",
      "scale" : "2x",
      "filename" : "ribbon-sin-texto@2x.png"
    },
    {
      "idiom" : "universal",
      "scale" : "3x",
      "filename" : "ribbon-sin-texto@3x.png"
    }
  ],
  "info" : {
    "version" : 1,
    "author" : "xcode"
  }
}